%YAML 1.1
%TAG !u! tag:unity3d.com,2011:
--- !u!1045 &1
EditorBuildSettings:
  m_ObjectHideFlags: 0
  serializedVersion: 2
  m_Scenes:
  - enabled: 0
    path: Assets/Scenes/MainMenu.unity
    guid: cf7a6f757f7c29d47b24a8f6a620cdc1
  - enabled: 1
    path: Assets/Scenes/SampleScene.unity
    guid: 6b46879b9348e8e4daa197f58202ad53
  - enabled: 1
    path: Assets/Scenes/EndingScene.unity
    guid: 1b4674ba4ca451a439be8a512f51e917
  m_configObjects: {}
