%YAML 1.1
%TAG !u! tag:unity3d.com,2011:
--- !u!114 &11400000
MonoBehaviour:
  m_ObjectHideFlags: 0
  m_CorrespondingSourceObject: {fileID: 0}
  m_PrefabInstance: {fileID: 0}
  m_PrefabAsset: {fileID: 0}
  m_GameObject: {fileID: 0}
  m_Enabled: 1
  m_EditorHideFlags: 0
  m_Script: {fileID: 11500000, guid: c9ca0c57a3310e443a8fa4dffa546c59, type: 3}
  m_Name: BaseUpgradeDataTest
  m_EditorClassIdentifier: 
  Upgradecost: 15
  UpgradeResearchThreshold: 20
